{
  "images" : [
    {
      "idiom" : "universal",
      "filename" : "MH_door_north.heic"
    }
  ],
  "info" : {
    "version" : 1,
    "author" : "xcode"
  },
  "properties" : {
    "width" : 6.5
  }
}