{
  "images" : [
    {
      "idiom" : "universal",
      "filename" : "HylO1wSiRFSjXupMuq%+RA_thumb_8.jpg"
    }
  ],
  "info" : {
    "version" : 1,
    "author" : "xcode"
  },
  "properties" : {
    "width" : 8
  }
}